{
  "env": {
    "NODE_ENV": "production",
    "HOST_URL_WWW": "https://beta.enoplay.com",
    "HOST_URL_MOBILE": "https://m.enoplay.com",
    "HOST_URL_API": "https://api.enoplay.com/v0",
    "HOST_URL_STATIC": "https://static.enoplayapis.com/v0",
    "HOST_URL_APP": "https://app.enoplayapis.com/v0",
    "HOST_URL_CDN": "https://cdn.enoplayapis.com",
    "STRIPE_KEY": "pk_live_9fwO5oTslzh6vogqoGLlEQri",
    "RECAPTCHA_SITE_KEY": "6LeARyYUAAAAAEQdog1EwdaSCHs7c17WGxglSiUL"
  }
}
